{
    "fluentMethods": true,
    "relationships": [
        {
            "relationshipType": "one-to-one",
            "relationshipName": "clientOrder",
            "otherEntityName": "clientOrder",
            "otherEntityField": "id",
            "ownerSide": true,
            "otherEntityRelationshipName": "rating"
        }
    ],
    "fields": [
        {
            "fieldName": "value",
            "fieldType": "Integer"
        },
        {
            "fieldName": "comments",
            "fieldType": "String"
        }
    ],
    "changelogDate": "20180719221716",
    "javadoc": "Rating entity.\n@author SETIT team.",
    "entityTableName": "rating",
    "dto": "mapstruct",
    "pagination": "no",
    "service": "serviceImpl",
    "jpaMetamodelFiltering": false,
    "searchEngine": "elasticsearch",
    "angularJSSuffix": "setitUI",
    "microserviceName": "microservice"
}